{
  "count": 100,
  "next": "https://whiskeyfyi.com/api/v1/glossary/?page=2",
  "previous": null,
  "results": [
    {
      "id": 74,
      "term": "ABV",
      "slug": "abv",
      "definition": "Alcohol By Volume, the standard international measure of alcohol content expressed as a percentage. Most whiskey is bottled between 40% and 46% ABV, though cask strength releases can exceed 60% ABV.",
      "category_name": "Legal & Classification",
      "meta_description": "ABV in whiskey: the alcohol by volume percentage, from standard 40% bottlings to 60%+ cask strength releases."
    },
    {
      "id": 35,
      "term": "Age Statement",
      "slug": "age-statement",
      "definition": "The number on a whisky bottle indicating the youngest spirit in the blend, expressed in years. By law, the age statement must reflect the youngest component. NAS (No Age Statement) whiskies omit this number entirely.",
      "category_name": "Scotch Whisky",
      "meta_description": "What is an age statement? The youngest whisky in the bottle, a legal guarantee of minimum maturation time."
    },
    {
      "id": 11,
      "term": "Angel's Share",
      "slug": "angels-share",
      "definition": "The portion of whiskey that evaporates from the cask during maturation, typically 1-2% per year in Scotland and up to 4-5% in warmer climates like Kentucky. Over decades of aging, a significant volume is lost to evaporation.",
      "category_name": "Maturation & Casks",
      "meta_description": "Learn about the angel's share: the whiskey lost to evaporation during cask aging, varying from 1% to 5% per year by climate."
    },
    {
      "id": 84,
      "term": "Auction Record",
      "slug": "auction-record",
      "definition": "The highest price achieved for a bottle of whiskey at public auction. Rare Scotch whiskies, particularly from closed distilleries, dominate record prices, with some bottles selling for millions of dollars.",
      "category_name": "Collecting & Investment",
      "meta_description": "Whiskey auction records: the world's most expensive bottles, dominated by rare Scotch from closed distilleries."
    },
    {
      "id": 57,
      "term": "Blended Malt",
      "slug": "blended-malt",
      "definition": "A whisky created by blending single malts from two or more distilleries, without adding grain whisky. In Japan, this practice is less common because most distilleries are owned by the same company and rarely trade casks.",
      "category_name": "Irish & Japanese",
      "meta_description": "What is blended malt whisky? Single malts from multiple distilleries combined without grain whisky."
    },
    {
      "id": 32,
      "term": "Blended Scotch",
      "slug": "blended-scotch",
      "definition": "A whisky created by combining single malt whiskies from multiple distilleries with grain whisky for consistency and balance. Blended Scotch accounts for over 90% of all Scotch whisky sold worldwide.",
      "category_name": "Scotch Whisky",
      "meta_description": "Learn about blended Scotch whisky: how malt and grain whiskies combine for the world's most popular Scotch style."
    },
    {
      "id": 73,
      "term": "Blended Whiskey (US)",
      "slug": "blended-whiskey-us",
      "definition": "In the United States, a blend of at least 20% straight whiskey with neutral grain spirits or other whiskey. Not to be confused with blended Scotch, which combines malt and grain whiskies but does not include neutral spirits.",
      "category_name": "Legal & Classification",
      "meta_description": "US blended whiskey: at least 20% straight whiskey mixed with neutral spirits, distinct from blended Scotch."
    },
    {
      "id": 58,
      "term": "Bonded Warehouse (Irish)",
      "slug": "bonded-warehouse-irish",
      "definition": "A government-supervised warehouse where Irish whiskey must age for at least three years in wooden casks on the island of Ireland. The bonded status ensures tax is paid only when the whiskey leaves for bottling.",
      "category_name": "Irish & Japanese",
      "meta_description": "Irish bonded warehouses: government-supervised aging for the mandatory 3-year minimum maturation period."
    },
    {
      "id": 87,
      "term": "Bottle Condition",
      "slug": "bottle-condition",
      "definition": "The physical state of a collectible whiskey bottle, including fill level, label integrity, capsule condition, and overall presentation. Condition significantly affects secondary market value, with pristine bottles commanding substantial premiums.",
      "category_name": "Collecting & Investment",
      "meta_description": "Bottle condition in whiskey collecting: how fill level, label, and capsule state determine secondary market value."
    },
    {
      "id": 45,
      "term": "Bottled in Bond",
      "slug": "bottled-in-bond",
      "definition": "A designation under the Bottled-in-Bond Act of 1897 requiring whiskey to be the product of one distiller, one distillery, one distilling season, aged at least four years in a federally bonded warehouse, and bottled at exactly 100 proof (50% ABV).",
      "category_name": "American Whiskey",
      "meta_description": "What does Bottled in Bond mean? The 1897 act guaranteeing single distiller, 4-year aging, and 100 proof whiskey."
    },
    {
      "id": 41,
      "term": "Bourbon",
      "slug": "bourbon",
      "definition": "An American whiskey made from a mash bill of at least 51% corn, distilled to no more than 160 proof, entered into new charred oak barrels at no more than 125 proof, and bottled at minimum 80 proof. Despite popular belief, bourbon can be made anywhere in the United States.",
      "category_name": "American Whiskey",
      "meta_description": "The legal definition of bourbon: 51% corn mash, new charred oak barrels, and the rules that govern America's spirit."
    },
    {
      "id": 94,
      "term": "Bourbon Trail",
      "slug": "bourbon-trail",
      "definition": "The Kentucky Bourbon Trail, a tourism program featuring guided tours of major bourbon distilleries across Kentucky. Established in 1999, it now includes over 40 distilleries and attracts over 2 million visitors annually.",
      "category_name": "Culture & History",
      "meta_description": "The Kentucky Bourbon Trail: 40+ distillery tours attracting millions of whiskey enthusiasts to the heart of bourbon country."
    },
    {
      "id": 18,
      "term": "Cask Finish",
      "slug": "cask-finish",
      "definition": "The practice of transferring mature whiskey to a different type of cask for a secondary period of aging. Common finishes include sherry, port, rum, wine, and Madeira casks, each adding new flavor dimensions.",
      "category_name": "Maturation & Casks",
      "meta_description": "What is a cask finish? Secondary maturation in sherry, port, or wine casks that adds new flavor dimensions to whiskey."
    },
    {
      "id": 90,
      "term": "Cask Investment",
      "slug": "cask-investment",
      "definition": "Purchasing a full cask of maturing whiskey as an investment, with the intention of bottling or reselling after further aging. Legitimate cask investment requires verified warehouse storage, insurance, and transparent exit strategies.",
      "category_name": "Collecting & Investment",
      "meta_description": "Cask investment in whiskey: buying maturing barrels as assets, requiring verified storage and exit planning."
    },
    {
      "id": 40,
      "term": "Cask Number",
      "slug": "cask-number",
      "definition": "A unique identifier assigned to each cask at the time of filling, used for traceability and single cask bottling. Single cask releases proudly display this number as proof of provenance and uniqueness.",
      "category_name": "Scotch Whisky",
      "meta_description": "What is a cask number? The unique ID tracking individual barrels from filling to bottling in Scotch whisky."
    },
    {
      "id": 16,
      "term": "Cask Strength",
      "slug": "cask-strength",
      "definition": "Whiskey bottled directly from the cask without dilution, typically ranging from 50% to 65% ABV depending on aging conditions. Cask strength bottlings preserve the full intensity and complexity developed during maturation.",
      "category_name": "Maturation & Casks",
      "meta_description": "Learn about cask strength whiskey: undiluted bottlings at 50-65% ABV that deliver maximum intensity and complexity."
    },
    {
      "id": 12,
      "term": "Charring",
      "slug": "charring",
      "definition": "The process of setting the inside of a new oak barrel on fire for a controlled duration, creating a layer of charcoal that acts as a flavor filter and caramelizes wood sugars. Char levels range from #1 (light, 15 seconds) to #4 (alligator char, 55 seconds).",
      "category_name": "Maturation & Casks",
      "meta_description": "Understand barrel charring in whiskey production: char levels #1 through #4 and how fire transforms oak flavor."
    },
    {
      "id": 76,
      "term": "Chill Filtration",
      "slug": "chill-filtration",
      "definition": "A process of cooling whiskey to near-freezing temperatures and passing it through fine filters to remove fatty acids and proteins that cause haziness when chilled or diluted. Non-chill-filtered whiskies retain more texture and flavor but may appear cloudy.",
      "category_name": "Legal & Classification",
      "meta_description": "Chill filtration in whiskey: removing haze-causing compounds at the cost of texture and flavor compounds."
    },
    {
      "id": 85,
      "term": "Closed Distillery",
      "slug": "closed-distillery",
      "definition": "A distillery that has permanently ceased production, making its remaining whiskey increasingly rare and valuable over time. Famous closed distilleries include Port Ellen, Rosebank, and Brora, though some have been revived.",
      "category_name": "Collecting & Investment",
      "meta_description": "Closed distilleries: permanently shuttered whiskey producers whose remaining bottles appreciate dramatically in value."
    },
    {
      "id": 5,
      "term": "Column Still",
      "slug": "column-still",
      "definition": "A continuous distillation apparatus, also called a Coffey still or patent still, that processes wash in a continuous stream rather than batches. Column stills produce a lighter, higher-proof spirit and are standard for grain whiskey and bourbon production.",
      "category_name": "Distilling Basics",
      "meta_description": "Understand column stills in whiskey making: continuous distillation, lighter spirits, and their role in bourbon and grain whiskey."
    },
    {
      "id": 67,
      "term": "Condenser",
      "slug": "condenser",
      "definition": "The apparatus that cools alcohol vapors back into liquid form after distillation. Shell-and-tube condensers produce a cleaner spirit, while traditional worm tub condensers preserve more copper contact and create a heavier, more characterful distillate.",
      "category_name": "Production",
      "meta_description": "Compare whiskey condensers: shell-and-tube for clean spirit vs worm tubs for heavier, more characterful distillate."
    },
    {
      "id": 70,
      "term": "Copper Contact",
      "slug": "copper-contact",
      "definition": "The interaction between spirit vapors and copper surfaces in the still, which strips undesirable sulfur compounds from the distillate. Greater copper contact from taller stills or longer lyne arms generally produces a lighter, fruitier spirit.",
      "category_name": "Production",
      "meta_description": "How copper contact shapes whiskey: stripping sulfur compounds for lighter, fruitier spirit in taller stills."
    },
    {
      "id": 100,
      "term": "Craft Revival",
      "slug": "craft-revival",
      "definition": "The modern movement of small, independent distilleries producing artisanal whiskey, emerging from the early 2000s. The craft revival has dramatically expanded the diversity of whiskey styles, ingredients, and production philosophies worldwide.",
      "category_name": "Culture & History",
      "meta_description": "The craft whiskey revival: how small independent distilleries are expanding global whiskey diversity since 2000."
    },
    {
      "id": 80,
      "term": "Craft Whiskey",
      "slug": "craft-whiskey",
      "definition": "A loosely defined term for whiskey produced by small, independent distilleries, typically emphasizing artisanal methods, local ingredients, and hands-on production. No legal definition exists in most countries, making the term open to interpretation.",
      "category_name": "Legal & Classification",
      "meta_description": "Craft whiskey: small-batch, artisanal spirits from independent distilleries with no universal legal definition."
    },
    {
      "id": 3,
      "term": "Distillation",
      "slug": "distillation",
      "definition": "The process of heating a fermented liquid to separate alcohol from water based on differing boiling points. Whiskey is typically distilled two or three times in copper pot stills or column stills to concentrate alcohol and flavor compounds.",
      "category_name": "Distilling Basics",
      "meta_description": "Discover how distillation works in whiskey production: pot stills, column stills, and the science of separating alcohol."
    },
    {
      "id": 26,
      "term": "Dram",
      "slug": "dram",
      "definition": "A traditional Scottish term for a measure of whisky, used colloquially to mean any glass or pour. Historically a dram was one-eighth of a fluid ounce, but today it simply means a sociable serving of whisky.",
      "category_name": "Tasting & Nosing",
      "meta_description": "The meaning of dram in whisky culture: a traditional Scottish term for a measure or glass of whisky."
    },
    {
      "id": 75,
      "term": "E150a",
      "slug": "e150a",
      "definition": "Spirit caramel, a food coloring additive permitted in Scotch whisky and many other whiskies to ensure batch-to-batch color consistency. While legal in most countries, its use is controversial and must not affect flavor. Some distillers proudly state 'no color added.'",
      "category_name": "Legal & Classification",
      "meta_description": "What is E150a? Spirit caramel coloring used for whiskey color consistency, legal but controversial among purists."
    },
    {
      "id": 8,
      "term": "Feints",
      "slug": "feints",
      "definition": "The final fraction of a distillation run, also called tails, containing heavier alcohols and oily compounds. Feints are typically recycled into the next distillation batch rather than discarded.",
      "category_name": "Distilling Basics",
      "meta_description": "Understand feints (tails) in whiskey distillation: the heavier fraction recycled for efficiency and flavor contribution."
    },
    {
      "id": 2,
      "term": "Fermentation",
      "slug": "fermentation",
      "definition": "The biological process where yeast converts sugars in the wort into alcohol and carbon dioxide, typically lasting 48 to 96 hours in large wooden or steel washbacks. The resulting liquid, called wash, reaches roughly 7-10% ABV.",
      "category_name": "Distilling Basics",
      "meta_description": "Understand fermentation in whiskey making: how yeast converts sugar to alcohol in washbacks over 48-96 hours."
    },
    {
      "id": 88,
      "term": "Fill Level",
      "slug": "fill-level",
      "definition": "The amount of liquid remaining in a sealed whiskey bottle, which can decrease over decades through evaporation via the cork. Base of neck, upper shoulder, and mid shoulder are standard descriptors, with lower levels reducing value.",
      "category_name": "Collecting & Investment",
      "meta_description": "Understanding fill levels in old whiskey bottles: how evaporation through cork affects value over decades."
    },
    {
      "id": 23,
      "term": "Finish",
      "slug": "finish",
      "definition": "The lingering taste and sensation after swallowing whiskey, measured both in duration (short, medium, long) and character (dry, sweet, warming, spicy). A long, complex finish is generally considered a mark of quality.",
      "category_name": "Tasting & Nosing",
      "meta_description": "What is finish in whiskey tasting? The lingering aftertaste that reveals quality through duration and complexity."
    },
    {
      "id": 14,
      "term": "First Fill",
      "slug": "first-fill",
      "definition": "A cask being used for the first time to mature whiskey after its initial purpose (such as holding bourbon or sherry). First fill casks impart the strongest wood influence, contributing intense flavors of vanilla, fruit, or spice.",
      "category_name": "Maturation & Casks",
      "meta_description": "What is a first fill cask? The most flavor-active cask in whiskey maturation, delivering intense wood character."
    },
    {
      "id": 62,
      "term": "Floor Malting",
      "slug": "floor-malting",
      "definition": "The traditional method of malting barley by spreading it on a stone floor and manually turning it with shovels during germination. Only a handful of distilleries still practice floor malting, including Laphroaig and Balvenie.",
      "category_name": "Production",
      "meta_description": "Floor malting: the traditional hand-turned method of germinating barley, still practiced at a few heritage distilleries."
    },
    {
      "id": 7,
      "term": "Foreshots",
      "slug": "foreshots",
      "definition": "The first fraction of distillate collected during a spirit run, containing volatile compounds like methanol and acetone that are toxic and undesirable. Foreshots are always discarded by the stillman.",
      "category_name": "Distilling Basics",
      "meta_description": "Learn what foreshots are in whiskey distillation: the first toxic fraction removed to ensure a safe, clean spirit."
    },
    {
      "id": 71,
      "term": "Geographic Indication",
      "slug": "geographic-indication",
      "definition": "A legal designation that protects the name of a product originating from a specific region. Scotch whisky, Irish whiskey, bourbon, and Japanese whisky all carry geographic indications that govern where and how they may be produced.",
      "category_name": "Legal & Classification",
      "meta_description": "Geographic indications in whiskey: legal protections for Scotch, Irish, bourbon, and other regional designations."
    },
    {
      "id": 55,
      "term": "Grain Whiskey (Irish)",
      "slug": "grain-whiskey-irish",
      "definition": "Irish whiskey produced in a column still from a mash of corn or wheat with a small percentage of malted barley. Lighter and sweeter than pot still whiskey, Irish grain whiskey forms the backbone of blended Irish whiskey.",
      "category_name": "Irish & Japanese",
      "meta_description": "Irish grain whiskey: column-still spirit from corn or wheat that provides lightness in blended Irish whiskey."
    },
    {
      "id": 9,
      "term": "Hearts",
      "slug": "hearts",
      "definition": "The middle fraction of a distillation run, selected by the stillman for its optimal balance of flavor, purity, and alcohol content. Only the hearts \u2014 also called the middle cut \u2014 are collected for maturation into whiskey.",
      "category_name": "Distilling Basics",
      "meta_description": "Discover what hearts means in whiskey distilling: the prized middle cut selected for maturation into quality spirit."
    },
    {
      "id": 56,
      "term": "Highball",
      "slug": "highball",
      "definition": "A simple cocktail of whisky and soda water served over ice, traditionally in a tall glass. The highball is a cultural institution in Japan, where meticulous preparation and precise ice-to-whisky ratios elevate the format to an art form.",
      "category_name": "Irish & Japanese",
      "meta_description": "The whisky highball: a simple mix of whisky and soda elevated to an art form in Japanese drinking culture."
    },
    {
      "id": 39,
      "term": "Highland",
      "slug": "highland",
      "definition": "The largest Scotch whisky region by geography, spanning from the central lowlands to the northern coast. Highland malts vary enormously in style, from light and floral to rich, full-bodied, and maritime.",
      "category_name": "Scotch Whisky",
      "meta_description": "Explore Highland Scotch: the largest and most diverse whisky region, from light coastal malts to rich inland drams."
    },
    {
      "id": 38,
      "term": "Independent Bottler",
      "slug": "independent-bottler",
      "definition": "A company that purchases casks of whisky from distilleries and bottles them under its own label, often as single cask releases. Notable independent bottlers include Gordon & MacPhail, Signatory, and Cadenhead's.",
      "category_name": "Scotch Whisky",
      "meta_description": "What are independent bottlers? Companies that source and bottle single cask whiskies from various distilleries."
    },
    {
      "id": 34,
      "term": "Islay",
      "slug": "islay",
      "definition": "A Scottish island off the west coast known for intensely peated, smoky whiskies. The island's nine distilleries, including Laphroaig, Ardbeg, and Lagavulin, produce some of the world's most distinctive and polarizing single malts.",
      "category_name": "Scotch Whisky",
      "meta_description": "Discover Islay whisky: the Scottish island producing the world's most intensely smoky, peated single malts."
    },
    {
      "id": 59,
      "term": "Japanese Whisky Standards",
      "slug": "japanese-whisky-standards",
      "definition": "Voluntary standards introduced in 2021 by the Japan Spirits & Liqueurs Makers Association requiring Japanese whisky to be fermented, distilled, and aged in Japan for at least three years. Prior to these standards, labeling was largely unregulated.",
      "category_name": "Irish & Japanese",
      "meta_description": "The 2021 Japanese whisky standards: new rules for fermentation, distillation, and aging that bring transparency."
    },
    {
      "id": 24,
      "term": "Legs",
      "slug": "legs",
      "definition": "The streaks of liquid that form on the inside of a whiskey glass after swirling, also called tears or curtains. While often attributed to quality, legs actually indicate alcohol content and viscosity rather than overall excellence.",
      "category_name": "Tasting & Nosing",
      "meta_description": "Learn what legs (tears) mean on a whiskey glass: alcohol content and viscosity indicators, not quality markers."
    },
    {
      "id": 81,
      "term": "Limited Edition",
      "slug": "limited-edition",
      "definition": "A whiskey release produced in restricted quantities, often from a single cask or small batch, and typically not repeated. Limited editions command premium prices and are sought after by collectors for their scarcity and unique character.",
      "category_name": "Collecting & Investment",
      "meta_description": "Limited edition whiskey: restricted-quantity releases prized by collectors for scarcity and unique flavor profiles."
    },
    {
      "id": 66,
      "term": "Lyne Arm",
      "slug": "lyne-arm",
      "definition": "The pipe connecting the head of a pot still to the condenser, also called the lye pipe. The angle of the lyne arm affects reflux: an upward angle promotes lighter spirits by forcing heavier vapors back down, while a downward angle creates richer distillate.",
      "category_name": "Production",
      "meta_description": "What is a lyne arm? The still pipe whose angle determines whether spirit will be light and delicate or rich and heavy."
    },
    {
      "id": 61,
      "term": "Malting",
      "slug": "malting",
      "definition": "The process of soaking barley in water, allowing it to germinate, then drying it in a kiln to halt growth. Malting activates enzymes that convert starch to sugar during mashing, and the kiln fuel determines whether the malt is peated or unpeated.",
      "category_name": "Production",
      "meta_description": "Understand malting in whiskey: soaking, germinating, and kilning barley to activate starch-converting enzymes."
    },
    {
      "id": 43,
      "term": "Mash Bill",
      "slug": "mash-bill",
      "definition": "The recipe of grains used to produce a whiskey, expressed as a percentage of each grain type. Bourbon mash bills typically combine corn, rye or wheat, and malted barley. The mash bill is the primary driver of a whiskey's flavor profile.",
      "category_name": "American Whiskey",
      "meta_description": "Understand mash bills: the grain recipe behind every bourbon and rye, and how corn, rye, and wheat ratios shape flavor."
    },
    {
      "id": 1,
      "term": "Mashing",
      "slug": "mashing",
      "definition": "The process of mixing milled grain with hot water in a mash tun to convert starches into fermentable sugars. Temperature rests activate enzymes that break down the grain, producing a sweet liquid called wort.",
      "category_name": "Distilling Basics",
      "meta_description": "Learn what mashing means in whiskey production, how enzymes convert grain starch to sugar, and why mash temperature matters."
    },
    {
      "id": 97,
      "term": "Master Blender",
      "slug": "master-blender",
      "definition": "The head of quality and blending at a whiskey company, responsible for maintaining consistency across releases and creating new expressions. Master blenders train their palates over decades and are considered among the industry's most important figures.",
      "category_name": "Culture & History",
      "meta_description": "The master blender: the industry's most important role, maintaining consistency and creating new whiskey expressions."
    },
    {
      "id": 63,
      "term": "Milling",
      "slug": "milling",
      "definition": "Crushing malted barley through a roller mill to produce grist, a mix of flour, grits, and husks. The grist ratio is critical: too fine and the mash tun clogs, too coarse and sugar extraction is inefficient.",
      "category_name": "Production",
      "meta_description": "What is milling in whiskey production? Crushing malted barley into grist with the right flour-to-husk ratio."
    }
  ]
}